2010331001,A-
2010331002,C
2010331003,C+
2010331005,C+
2010331006,F
2010331008,C
2010331009,A-
2010331010,A
2010331011,A-
2010331012,B-
2010331013,B-
2010331015,A-
2010331016,A
2010331017,C-
2010331018,A+
2010331020,C+
2010331021,A+
2010331022,B+
2010331024,C
2010331025,F
2010331026,C+
2010331027,B
2010331029,F
2010331030,F
2010331031,B
2010331032,F
2010331033,C
2010331034,F
2010331035,A-
2010331036,C
2010331037,B
2010331038,B-
2010331039,B-
2010331040,A-
2010331042,B
2010331043,F
2010331044,A-
2010331045,B-
2010331046,F
2010331047,B+
2010331051,B+
2010331053,C
2010331055,F
2010331056,B
2010331057,C
2010331059,C-
2010331060,C
2010331062,F
2010331063,F
2010331064,F
2010331065,C
2010331067,A-
2010331068,C+
2010331069,F
2010331070,F
2010331071,C+
2010331072,
2009331014,B