2010331001,F
2010331002,F
2010331003,F
2010331005,F
2010331006,F
2010331008,F
2010331009,F
2010331010,F
2010331011,C-
2010331012,F
2010331013,F
2010331015,C-
2010331016,F
2010331017,C-
2010331018,C-
2010331020,F
2010331021,C
2010331022,C
2010331024,F
2010331025,F
2010331026,F
2010331027,F
2010331029,F
2010331030,F
2010331031,F
2010331032,F
2010331033,F
2010331034,F
2010331035,B+
2010331036,F
2010331037,F
2010331038,F
2010331039,F
2010331040,F
2010331042,F
2010331043,F
2010331044,B+
2010331045,F
2010331046,F
2010331047,F
2010331051,F
2010331053,F
2010331055,F
2010331056,C-
2010331057,F
2010331059,F
2010331060,F
2010331062,F
2010331063,F
2010331064,F
2010331065,F
2010331067,F
2010331068,F
2010331069,F
2010331070,F
2010331071,C-
2010331072,
2009331014,F