2010331001,A
2010331002,A+
2010331003,F
2010331005,F
2010331006,F
2010331008,A+
2010331009,A+
2010331010,A+
2010331011,A+
2010331012,F
2010331013,A+
2010331015,A-
2010331016,F
2010331017,A
2010331018,A-
2010331020,A+
2010331021,A+
2010331022,B+
2010331024,A+
2010331025,F
2010331026,F
2010331027,A-
2010331029,F
2010331030,A
2010331031,A
2010331032,A+
2010331033,A+
2010331034,F
2010331035,A+
2010331036,A
2010331037,A+
2010331038,A+
2010331039,A
2010331040,A+
2010331042,A-
2010331043,F
2010331044,A-
2010331045,A
2010331046,A
2010331047,A
2010331051,A+
2010331053,F
2010331055,A+
2010331056,A+
2010331057,A+
2010331059,F
2010331060,A+
2010331062,F
2010331063,A-
2010331064,B+
2010331065,F
2010331067,A+
2010331068,F
2010331069,A+
2010331070,A+
2010331071,A-
2010331072,
2009331014,A+