2010331001,A
2010331002,B+
2010331003,A-
2010331005,F
2010331006,A-
2010331008,B+
2010331009,B+
2010331010,A
2010331011,A-
2010331012,A
2010331013,A
2010331015,A-
2010331016,A
2010331017,B+
2010331018,B+
2010331020,B
2010331021,A+
2010331022,A+
2010331024,A
2010331025,F
2010331026,B-
2010331027,A-
2010331029,F
2010331030,A-
2010331031,A
2010331032,B+
2010331033,A-
2010331034,C+
2010331035,A
2010331036,C+
2010331037,B+
2010331038,B+
2010331039,A
2010331040,A+
2010331042,A+
2010331043,B+
2010331044,A+
2010331045,B+
2010331046,B-
2010331047,A+
2010331051,A
2010331053,B+
2010331055,C+
2010331056,A+
2010331057,B+
2010331059,C+
2010331060,A+
2010331062,F
2010331063,F
2010331064,F
2010331065,F
2010331067,A+
2010331068,A+
2010331069,B-
2010331070,B
2010331071,B+
2009331014,F