2010331001,B
2010331002,C
2010331003,F
2010331005,C+
2010331006,B
2010331008,B-
2010331009,C+
2010331010,B
2010331011,C+
2010331012,C
2010331013,B-
2010331015,B-
2010331016,A-
2010331017,C
2010331018,B+
2010331020,C-
2010331021,B+
2010331022,B
2010331024,B+
2010331025,B
2010331026,B-
2010331027,B+
2010331029,F
2010331030,B-
2010331031,B
2010331032,B+
2010331033,B-
2010331034,B
2010331035,B
2010331036,A-
2010331037,B+
2010331038,B
2010331039,B
2010331040,B-
2010331042,B+
2010331043,B+
2010331044,B
2010331045,C
2010331046,C
2010331047,B
2010331051,A-
2010331053,B
2010331055,B
2010331056,B
2010331057,C+
2010331059,C+
2010331060,B+
2010331062,F
2010331063,B+
2010331064,B-
2010331065,B+
2010331067,B
2010331068,B
2010331069,B-
2010331070,C
2010331071,A-
2010331072,
2009331014,B-