2010331001,A-
2010331002,A-
2010331003,A-
2010331005,B+
2010331006,A-
2010331008,B+
2010331009,A-
2010331010,B+
2010331011,B+
2010331012,B+
2010331013,A-
2010331015,A
2010331016,B+
2010331017,B+
2010331018,B+
2010331020,B+
2010331021,B+
2010331022,B+
2010331024,B+
2010331025,B+
2010331026,B+
2010331027,B+
2010331029,B
2010331030,B+
2010331031,B+
2010331032,A-
2010331033,A-
2010331034,A-
2010331035,B
2010331036,B
2010331037,B+
2010331038,A-
2010331039,A-
2010331040,A-
2010331042,A-
2010331043,B+
2010331044,B+
2010331045,B+
2010331046,B+
2010331047,A-
2010331051,A
2010331053,A-
2010331055,B+
2010331056,B+
2010331057,B+
2010331059,B
2010331060,A-
2010331062,F
2010331063,A-
2010331064,B+
2010331065,B+
2010331067,B+
2010331068,B+
2010331069,A-
2010331070,F
2010331071,B+
2010331072,
2009331014,B+